[
    {
        "arguments": [
            "g++",
            "-c",
            "-std=c++11",
            "-o",
            "stack",
            "main.cpp"
        ],
        "directory": "/home/cocoa/Documents/SchoolStuff/schoolstuff/c12/stacks",
        "file": "main.cpp"
    }
]