%!PS-Adobe-3.0
%%BoundingBox: 24 24 571 818
%%Title: Enscript Output
%%For: cocoa
%%Creator: GNU Enscript 1.6.6
%%CreationDate: Mon Dec 17 18:58:30 2018
%%Orientation: Portrait
%%Pages: (atend)
%%DocumentMedia: A4 595 842 0 () ()
%%DocumentNeededResources: (atend)
%%EndComments
%%BeginProlog
%%BeginResource: procset Enscript-Prolog 1.6 6
%
% Procedures.
%

/_S {	% save current state
  /_s save def
} def
/_R {	% restore from saved state
  _s restore
} def

/S {	% showpage protecting gstate
  gsave
  showpage
  grestore
} bind def

/MF {	% fontname newfontname -> -	make a new encoded font
  /newfontname exch def
  /fontname exch def

  /fontdict fontname findfont def
  /newfont fontdict maxlength dict def

  fontdict {
    exch
    dup /FID eq {
      % skip FID pair
      pop pop
    } {
      % copy to the new font dictionary
      exch newfont 3 1 roll put
    } ifelse
  } forall

  newfont /FontName newfontname put

  % insert only valid encoding vectors
  encoding_vector length 256 eq {
    newfont /Encoding encoding_vector put
  } if

  newfontname newfont definefont pop
} def

/MF_PS { % fontname newfontname -> -	make a new font preserving its enc
  /newfontname exch def
  /fontname exch def

  /fontdict fontname findfont def
  /newfont fontdict maxlength dict def

  fontdict {
    exch
    dup /FID eq {
      % skip FID pair
      pop pop
    } {
      % copy to the new font dictionary
      exch newfont 3 1 roll put
    } ifelse
  } forall

  newfont /FontName newfontname put

  newfontname newfont definefont pop
} def

/SF { % fontname width height -> -	set a new font
  /height exch def
  /width exch def

  findfont
  [width 0 0 height 0 0] makefont setfont
} def

/SUF { % fontname width height -> -	set a new user font
  /height exch def
  /width exch def

  /F-gs-user-font MF
  /F-gs-user-font width height SF
} def

/SUF_PS { % fontname width height -> -	set a new user font preserving its enc
  /height exch def
  /width exch def

  /F-gs-user-font MF_PS
  /F-gs-user-font width height SF
} def

/M {moveto} bind def
/s {show} bind def

/Box {	% x y w h -> -			define box path
  /d_h exch def /d_w exch def /d_y exch def /d_x exch def
  d_x d_y  moveto
  d_w 0 rlineto
  0 d_h rlineto
  d_w neg 0 rlineto
  closepath
} def

/bgs {	% x y height blskip gray str -> -	show string with bg color
  /str exch def
  /gray exch def
  /blskip exch def
  /height exch def
  /y exch def
  /x exch def

  gsave
    x y blskip sub str stringwidth pop height Box
    gray setgray
    fill
  grestore
  x y M str s
} def

/bgcs { % x y height blskip red green blue str -> -  show string with bg color
  /str exch def
  /blue exch def
  /green exch def
  /red exch def
  /blskip exch def
  /height exch def
  /y exch def
  /x exch def

  gsave
    x y blskip sub str stringwidth pop height Box
    red green blue setrgbcolor
    fill
  grestore
  x y M str s
} def

% Highlight bars.
/highlight_bars {	% nlines lineheight output_y_margin gray -> -
  gsave
    setgray
    /ymarg exch def
    /lineheight exch def
    /nlines exch def

    % This 2 is just a magic number to sync highlight lines to text.
    0 d_header_y ymarg sub 2 sub translate

    /cw d_output_w cols div def
    /nrows d_output_h ymarg 2 mul sub lineheight div cvi def

    % for each column
    0 1 cols 1 sub {
      cw mul /xp exch def

      % for each rows
      0 1 nrows 1 sub {
        /rn exch def
        rn lineheight mul neg /yp exch def
        rn nlines idiv 2 mod 0 eq {
	  % Draw highlight bar.  4 is just a magic indentation.
	  xp 4 add yp cw 8 sub lineheight neg Box fill
	} if
      } for
    } for

  grestore
} def

% Line highlight bar.
/line_highlight {	% x y width height gray -> -
  gsave
    /gray exch def
    Box gray setgray fill
  grestore
} def

% Column separator lines.
/column_lines {
  gsave
    .1 setlinewidth
    0 d_footer_h translate
    /cw d_output_w cols div def
    1 1 cols 1 sub {
      cw mul 0 moveto
      0 d_output_h rlineto stroke
    } for
  grestore
} def

% Column borders.
/column_borders {
  gsave
    .1 setlinewidth
    0 d_footer_h moveto
    0 d_output_h rlineto
    d_output_w 0 rlineto
    0 d_output_h neg rlineto
    closepath stroke
  grestore
} def

% Do the actual underlay drawing
/draw_underlay {
  ul_style 0 eq {
    ul_str true charpath stroke
  } {
    ul_str show
  } ifelse
} def

% Underlay
/underlay {	% - -> -
  gsave
    0 d_page_h translate
    d_page_h neg d_page_w atan rotate

    ul_gray setgray
    ul_font setfont
    /dw d_page_h dup mul d_page_w dup mul add sqrt def
    ul_str stringwidth pop dw exch sub 2 div ul_h_ptsize -2 div moveto
    draw_underlay
  grestore
} def

/user_underlay {	% - -> -
  gsave
    ul_x ul_y translate
    ul_angle rotate
    ul_gray setgray
    ul_font setfont
    0 0 ul_h_ptsize 2 div sub moveto
    draw_underlay
  grestore
} def

% Page prefeed
/page_prefeed {		% bool -> -
  statusdict /prefeed known {
    statusdict exch /prefeed exch put
  } {
    pop
  } ifelse
} def

% Wrapped line markers
/wrapped_line_mark {	% x y charwith charheight type -> -
  /type exch def
  /h exch def
  /w exch def
  /y exch def
  /x exch def

  type 2 eq {
    % Black boxes (like TeX does)
    gsave
      0 setlinewidth
      x w 4 div add y M
      0 h rlineto w 2 div 0 rlineto 0 h neg rlineto
      closepath fill
    grestore
  } {
    type 3 eq {
      % Small arrows
      gsave
        .2 setlinewidth
        x w 2 div add y h 2 div add M
        w 4 div 0 rlineto
        x w 4 div add y lineto stroke

        x w 4 div add w 8 div add y h 4 div add M
        x w 4 div add y lineto
	w 4 div h 8 div rlineto stroke
      grestore
    } {
      % do nothing
    } ifelse
  } ifelse
} def

% EPSF import.

/BeginEPSF {
  /b4_Inc_state save def    		% Save state for cleanup
  /dict_count countdictstack def	% Count objects on dict stack
  /op_count count 1 sub def		% Count objects on operand stack
  userdict begin
  /showpage { } def
  0 setgray 0 setlinecap
  1 setlinewidth 0 setlinejoin
  10 setmiterlimit [ ] 0 setdash newpath
  /languagelevel where {
    pop languagelevel
    1 ne {
      false setstrokeadjust false setoverprint
    } if
  } if
} bind def

/EndEPSF {
  count op_count sub { pos } repeat	% Clean up stacks
  countdictstack dict_count sub { end } repeat
  b4_Inc_state restore
} bind def

% Check PostScript language level.
/languagelevel where {
  pop /gs_languagelevel languagelevel def
} {
  /gs_languagelevel 1 def
} ifelse
%%EndResource
%%BeginResource: procset Enscript-Encoding-88591 1.6 6
/encoding_vector [
/.notdef      	/.notdef      	/.notdef      	/.notdef      	
/.notdef      	/.notdef      	/.notdef      	/.notdef      	
/.notdef      	/.notdef      	/.notdef      	/.notdef      	
/.notdef      	/.notdef      	/.notdef      	/.notdef      	
/.notdef      	/.notdef      	/.notdef      	/.notdef      	
/.notdef      	/.notdef      	/.notdef      	/.notdef      	
/.notdef      	/.notdef      	/.notdef      	/.notdef      	
/.notdef      	/.notdef      	/.notdef      	/.notdef      	
/space        	/exclam       	/quotedbl     	/numbersign   	
/dollar       	/percent      	/ampersand    	/quoteright   	
/parenleft    	/parenright   	/asterisk     	/plus         	
/comma        	/hyphen       	/period       	/slash        	
/zero         	/one          	/two          	/three        	
/four         	/five         	/six          	/seven        	
/eight        	/nine         	/colon        	/semicolon    	
/less         	/equal        	/greater      	/question     	
/at           	/A            	/B            	/C            	
/D            	/E            	/F            	/G            	
/H            	/I            	/J            	/K            	
/L            	/M            	/N            	/O            	
/P            	/Q            	/R            	/S            	
/T            	/U            	/V            	/W            	
/X            	/Y            	/Z            	/bracketleft  	
/backslash    	/bracketright 	/asciicircum  	/underscore   	
/quoteleft    	/a            	/b            	/c            	
/d            	/e            	/f            	/g            	
/h            	/i            	/j            	/k            	
/l            	/m            	/n            	/o            	
/p            	/q            	/r            	/s            	
/t            	/u            	/v            	/w            	
/x            	/y            	/z            	/braceleft    	
/bar          	/braceright   	/tilde        	/.notdef      	
/.notdef      	/.notdef      	/.notdef      	/.notdef      	
/.notdef      	/.notdef      	/.notdef      	/.notdef      	
/.notdef      	/.notdef      	/.notdef      	/.notdef      	
/.notdef      	/.notdef      	/.notdef      	/.notdef      	
/.notdef      	/.notdef      	/.notdef      	/.notdef      	
/.notdef      	/.notdef      	/.notdef      	/.notdef      	
/.notdef      	/.notdef      	/.notdef      	/.notdef      	
/.notdef      	/.notdef      	/.notdef      	/.notdef      	
/space        	/exclamdown   	/cent         	/sterling     	
/currency     	/yen          	/brokenbar    	/section      	
/dieresis     	/copyright    	/ordfeminine  	/guillemotleft	
/logicalnot   	/hyphen       	/registered   	/macron       	
/degree       	/plusminus    	/twosuperior  	/threesuperior	
/acute        	/mu           	/paragraph    	/bullet       	
/cedilla      	/onesuperior  	/ordmasculine 	/guillemotright	
/onequarter   	/onehalf      	/threequarters	/questiondown 	
/Agrave       	/Aacute       	/Acircumflex  	/Atilde       	
/Adieresis    	/Aring        	/AE           	/Ccedilla     	
/Egrave       	/Eacute       	/Ecircumflex  	/Edieresis    	
/Igrave       	/Iacute       	/Icircumflex  	/Idieresis    	
/Eth          	/Ntilde       	/Ograve       	/Oacute       	
/Ocircumflex  	/Otilde       	/Odieresis    	/multiply     	
/Oslash       	/Ugrave       	/Uacute       	/Ucircumflex  	
/Udieresis    	/Yacute       	/Thorn        	/germandbls   	
/agrave       	/aacute       	/acircumflex  	/atilde       	
/adieresis    	/aring        	/ae           	/ccedilla     	
/egrave       	/eacute       	/ecircumflex  	/edieresis    	
/igrave       	/iacute       	/icircumflex  	/idieresis    	
/eth          	/ntilde       	/ograve       	/oacute       	
/ocircumflex  	/otilde       	/odieresis    	/divide       	
/oslash       	/ugrave       	/uacute       	/ucircumflex  	
/udieresis    	/yacute       	/thorn        	/ydieresis    	
] def
%%EndResource
%%EndProlog
%%BeginSetup
%%IncludeResource: font Courier-Bold
%%IncludeResource: font Courier
/HFpt_w 10 def
/HFpt_h 10 def
/Courier-Bold /HF-gs-font MF
/HF /HF-gs-font findfont [HFpt_w 0 0 HFpt_h 0 0] makefont def
/Courier /F-gs-font MF
/F-gs-font 10 10 SF
/#copies 1 def
% Pagedevice definitions:
gs_languagelevel 1 gt {
  <<
    /PageSize [595 842] 
  >> setpagedevice
} if
%%BeginResource: procset Enscript-Header-simple 1.6 6

/do_header {	% print default simple header
  gsave
    d_header_x d_header_y HFpt_h 3 div add translate

    HF setfont
    user_header_p {
      5 0 moveto user_header_left_str show

      d_header_w user_header_center_str stringwidth pop sub 2 div
      0 moveto user_header_center_str show

      d_header_w user_header_right_str stringwidth pop sub 5 sub
      0 moveto user_header_right_str show
    } {
      5 0 moveto fname show
      45 0 rmoveto fmodstr show
      45 0 rmoveto pagenumstr show
    } ifelse

  grestore
} def
%%EndResource
/d_page_w 547 def
/d_page_h 794 def
/d_header_x 0 def
/d_header_y 779 def
/d_header_w 547 def
/d_header_h 15 def
/d_footer_x 0 def
/d_footer_y 0 def
/d_footer_w 547 def
/d_footer_h 0 def
/d_output_w 547 def
/d_output_h 779 def
/cols 1 def
%%EndSetup
%%Page: (1) 1
%%BeginPageSetup
_S
24 24 translate
/pagenum 1 def
/fname (abstract_class/main.cpp) def
/fdir (abstract_class) def
/ftail (main.cpp) def
% User defined strings:
/fmodstr (Mon Dec 17 18:57:51 2018) def
/pagenumstr (1) def
/user_header_p false def
/user_footer_p false def
%%EndPageSetup
do_header
5 766 M
(#include <iostream>) s
5 755 M
(using namespace std;) s
5 722 M
(class Weapon {) s
5 711 M
(    public:) s
5 700 M
(        Weapon\(\) {) s
5 689 M
(            cout << "Weapon created" << endl;) s
5 678 M
(        }) s
5 667 M
(        virtual void attack\(int id\){}) s
5 656 M
(        virtual void uhealth\(double amount\){}) s
5 645 M
(};) s
5 623 M
(class Sword : public Weapon {) s
5 612 M
(    public:) s
5 601 M
(        Sword\(\) {) s
5 590 M
(            cout << "Sword" << endl;) s
5 579 M
(        }) s
5 568 M
(        void attack\(int id\) {) s
5 557 M
(            cout << "I attacked " << id << endl;) s
5 546 M
(        }) s
5 535 M
(        void uhealth\(double amount\) {) s
5 524 M
(            cout << "Took damage: " << amount;) s
5 513 M
(        }) s
5 502 M
(};) s
5 480 M
(int main\(\) {) s
5 469 M
(    Sword s1;) s
5 458 M
(    s1.attack\(2\);) s
5 447 M
(    s1.uhealth\(23.02\);) s
5 436 M
(}) s
_R
S
%%Page: (1) 2
%%BeginPageSetup
_S
24 24 translate
/pagenum 1 def
/fname (array_queue/main.cpp) def
/fdir (array_queue) def
/ftail (main.cpp) def
% User defined strings:
/fmodstr (Mon Dec 17 18:58:04 2018) def
/pagenumstr (1) def
/user_header_p false def
/user_footer_p false def
%%EndPageSetup
do_header
5 766 M
(#include <iostream>) s
5 755 M
(#define MAX_Q_SIZE 30) s
5 733 M
(class Queue {) s
5 722 M
(    public:) s
5 711 M
(        ) s
5 700 M
(        Queue\(int opcode\) {) s
5 689 M
(            this->queue[this->top_index+1] = opcode;) s
5 678 M
(            this->top_index++;) s
5 667 M
(            this->bottom_index++;) s
5 656 M
(        }) s
5 634 M
(        void enque\(int opcode\) {) s
5 623 M
(            this->queue[this->top_index+1] = opcode;) s
5 612 M
(            this->top_index++;) s
5 601 M
(        }) s
5 579 M
(        int deque\(\) {) s
5 568 M
(            if \(bottom_index > top_index\) ) s
5 557 M
(                std::cout << "Error: Underflow. Empty queue" << std::endl;) s
5 535 M
(            int ret = this->queue[this->bottom_index];) s
5 524 M
(            ) s
5 513 M
(            this->bottom_index++;) s
5 491 M
(            return ret;) s
5 480 M
(        }) s
5 458 M
(        void printq\(\) {) s
5 447 M
(            int i;) s
5 436 M
(            for \(i = bottom_index; i <= top_index; ++i\) {) s
5 425 M
(                std::cout << this->queue[i] << std::endl;) s
5 414 M
(            }) s
5 403 M
(        }) s
5 370 M
(    private:) s
5 359 M
(        int queue[MAX_Q_SIZE];) s
5 348 M
(        int top_index = -1;) s
5 337 M
(        int bottom_index = -1;) s
5 326 M
(};) s
5 304 M
(int main\(int argc, char *argv[]\)) s
5 293 M
({) s
5 282 M
(    Queue Q\(1\);) s
5 260 M
(    Q.enque\(2\);) s
5 249 M
(    Q.enque\(3\);) s
5 238 M
(    Q.enque\(5\);) s
5 216 M
(    std::cout << "Displaying: " << std::endl;) s
5 205 M
(    Q.printq\(\);) s
5 183 M
(    Q.deque\(\);) s
5 172 M
(    Q.deque\(\);) s
5 150 M
(    std::cout << "Displaying: " << std::endl;) s
5 139 M
(    Q.printq\(\);) s
5 117 M
(    Q.deque\(\);) s
5 106 M
(    Q.deque\(\);) s
5 95 M
(    Q.deque\(\);) s
5 73 M
(    return 0;) s
5 62 M
(}) s
_R
S
%%Page: (1) 3
%%BeginPageSetup
_S
24 24 translate
/pagenum 1 def
/fname (array_stack/main.cpp) def
/fdir (array_stack) def
/ftail (main.cpp) def
% User defined strings:
/fmodstr (Sat Dec 15 16:37:13 2018) def
/pagenumstr (1) def
/user_header_p false def
/user_footer_p false def
%%EndPageSetup
do_header
5 766 M
(#include <iostream>) s
5 755 M
(#define STACK_SIZE 30) s
5 733 M
(class Stack {) s
5 722 M
(    public:) s
5 711 M
(        void push\(int item\) {) s
5 700 M
(            this->stk[this->top_index+1] = item;) s
5 689 M
(            this->top_index++;) s
5 678 M
(        }) s
5 656 M
(        int pop\(\) {) s
5 645 M
(            if \(this->top_index < 0\) {) s
5 634 M
(                std::cout << "Underflow Error: Empty stack" << std::endl;) s
5 623 M
(            }) s
5 612 M
(            int ret = this->stk[this->top_index];) s
5 601 M
(            this->top_index--;) s
5 579 M
(            return ret;) s
5 568 M
(        }) s
5 546 M
(        void dump\(\) {) s
5 535 M
(            int i;) s
5 524 M
(            for \(i = 0; i < this->top_index+1; ++i\) {) s
5 513 M
(                std::cout << this->stk[i] << std::endl;) s
5 502 M
(            }) s
5 491 M
(        }) s
5 480 M
(    private:) s
5 469 M
(        int stk[STACK_SIZE];) s
5 458 M
(        int top_index = -1;) s
5 447 M
(};) s
5 425 M
(int main\(int argc, char *argv[]\)) s
5 414 M
({) s
5 403 M
(    Stack s;) s
5 381 M
(    s.push\(1\);) s
5 370 M
(    s.push\(2\);) s
5 359 M
(    s.push\(3\);) s
5 337 M
(    s.dump\(\);) s
5 315 M
(    s.pop\(\);) s
5 304 M
(    s.dump\(\);) s
5 293 M
(    return 0;) s
5 282 M
(}) s
_R
S
%%Page: (1) 4
%%BeginPageSetup
_S
24 24 translate
/pagenum 1 def
/fname (circular_queue/main.cpp) def
/fdir (circular_queue) def
/ftail (main.cpp) def
% User defined strings:
/fmodstr (Sat Dec 15 21:16:34 2018) def
/pagenumstr (1) def
/user_header_p false def
/user_footer_p false def
%%EndPageSetup
do_header
5 766 M
(#include <iostream>) s
5 755 M
(#include <stdexcept>) s
5 733 M
(struct node {) s
5 722 M
(    struct node* next;) s
5 711 M
(    int opcode;) s
5 700 M
(};) s
5 678 M
(class Queue) s
5 667 M
({) s
5 656 M
(private:) s
5 645 M
(    struct node* bottom;) s
5 634 M
(    struct node* top;) s
5 623 M
(    int queuelen = 0, maxlen;) s
5 601 M
(public:) s
5 590 M
(    Queue\(int init_opcode, int bufferlen = -1\) {) s
5 579 M
(        if \(bufferlen == -1\) {) s
5 568 M
(            throw "Invalid/Missing argument: Queue len > 0";) s
5 557 M
(        } ) s
5 546 M
(        struct node* temp = new node;) s
5 535 M
(        temp->opcode = init_opcode;) s
5 524 M
(        temp->next   = NULL;) s
5 502 M
(        this->bottom = temp;) s
5 491 M
(        this->top = temp;) s
5 480 M
(        ) s
5 469 M
(        this->queuelen++;) s
5 458 M
(        this->maxlen = bufferlen;) s
5 447 M
(    }) s
5 436 M
(    ) s
5 425 M
(    void enqueue\(int new_opcode\) {) s
5 414 M
(        if \(this->queuelen >= this->maxlen\) {) s
5 403 M
(            std::cout << "Cannot append to full queue" << std::endl;) s
5 392 M
(            return;) s
5 381 M
(        }) s
5 370 M
(        struct node* temp = new node;) s
5 359 M
(        temp->opcode = new_opcode;) s
5 348 M
(        temp->next = NULL;) s
5 326 M
(        this->top->next = temp;) s
5 315 M
(        this->top = temp;) s
5 304 M
(        this->queuelen++;) s
5 282 M
(        std::cout << "New length: " << this->queuelen << std::endl;) s
5 260 M
(    }) s
5 238 M
(    int dequeue\(\) {) s
5 227 M
(        if \(this->bottom == NULL\) {) s
5 216 M
(            std::cout << "Underflow Error" << std::endl;) s
5 205 M
(            return -1;) s
5 194 M
(        }) s
5 183 M
(        struct node* temp = new node;) s
5 172 M
(        int rval = this->bottom->opcode;) s
5 161 M
(        temp = this->bottom;) s
5 139 M
(        this->bottom = this->bottom->next;) s
5 128 M
(        delete temp;) s
5 117 M
(            ) s
5 106 M
(        this->queuelen--;) s
5 95 M
(        return rval;) s
5 84 M
(    }) s
5 62 M
(    void printq\(\) {) s
5 51 M
(        struct node* temp = new node;) s
5 40 M
(        temp = this->bottom;) s
5 29 M
(        while\( temp != NULL \) {) s
5 18 M
(            std::cout << "Opcode: " << temp->opcode << std::endl;) s
5 7 M
(            temp = temp->next;) s
_R
S
%%Page: (2) 5
%%BeginPageSetup
_S
24 24 translate
/pagenum 2 def
/fname (circular_queue/main.cpp) def
/fdir (circular_queue) def
/ftail (main.cpp) def
% User defined strings:
/fmodstr (Sat Dec 15 21:16:34 2018) def
/pagenumstr (2) def
/user_header_p false def
/user_footer_p false def
%%EndPageSetup
do_header
5 766 M
(        }) s
5 755 M
(    }) s
5 733 M
(};) s
5 700 M
(int main\(\)) s
5 689 M
({) s
5 678 M
(    Queue Q \(10, 5\);) s
5 656 M
(    Q.enqueue\(11\);) s
5 645 M
(    Q.enqueue\(12\);) s
5 634 M
(    Q.enqueue\(13\);) s
5 623 M
(    Q.enqueue\(14\);) s
5 612 M
(    Q.enqueue\(15\);) s
5 590 M
(    Q.printq\(\);) s
5 568 M
(    Q.enqueue\(16\);) s
5 546 M
(    Q.dequeue\(\);) s
5 535 M
(    Q.dequeue\(\);) s
5 524 M
(    Q.printq\(\);) s
5 502 M
(    Q.dequeue\(\);) s
5 491 M
(    Q.dequeue\(\);) s
5 480 M
(    Q.dequeue\(\);) s
5 469 M
(    Q.dequeue\(\);) s
5 458 M
(    Q.dequeue\(\);) s
5 436 M
(    ) s
5 425 M
(    return 0;) s
5 414 M
(}) s
_R
S
%%Page: (1) 6
%%BeginPageSetup
_S
24 24 translate
/pagenum 1 def
/fname (class_dance_thingy/main.cpp) def
/fdir (class_dance_thingy) def
/ftail (main.cpp) def
% User defined strings:
/fmodstr (Sat Dec 15 16:37:13 2018) def
/pagenumstr (1) def
/user_header_p false def
/user_footer_p false def
%%EndPageSetup
do_header
5 766 M
(#include <iostream>) s
5 755 M
(#include <string>) s
5 744 M
(#include <vector>) s
5 722 M
(struct entry {) s
5 711 M
(    int RollNumber;) s
5 700 M
(    std::string name;) s
5 689 M
(    std::string style;) s
5 678 M
(    double fee; // In INR) s
5 667 M
(};) s
5 645 M
(class Dance {) s
5 634 M
(public:) s
5 623 M
(    void add_entry\(entry record\) {) s
5 612 M
(        this->database.push_back\(record\);) s
5 601 M
(    }) s
5 579 M
(private:) s
5 568 M
(    std::vector<entry> database; ) s
5 557 M
(};) s
5 524 M
(int main\(int argc, char *argv[]\)) s
5 513 M
({) s
5 502 M
(    Dance instance;) s
5 480 M
(    struct entry e1 = {1, "cocoa", "Western", 2500};) s
5 458 M
(    instance.add_entry\(e1\);) s
5 436 M
(    instance.add_entry\(\)) s
5 425 M
(    return 0;) s
5 414 M
(}) s
_R
S
%%Page: (1) 7
%%BeginPageSetup
_S
24 24 translate
/pagenum 1 def
/fname (class_p1/main.cpp) def
/fdir (class_p1) def
/ftail (main.cpp) def
% User defined strings:
/fmodstr (Sat Dec 15 16:37:13 2018) def
/pagenumstr (1) def
/user_header_p false def
/user_footer_p false def
%%EndPageSetup
do_header
5 766 M
(#include <iostream>) s
5 755 M
(#include <string>) s
5 733 M
(class Data {) s
5 722 M
(public:) s
5 711 M
(    int rno;) s
5 700 M
(    std::string name;) s
5 689 M
(    double marks;) s
5 667 M
(    void display\(\) {) s
5 656 M
(        std::cout << "Roll Number: " << this->rno << std::endl) s
5 645 M
(                  << "Name: " << this->name << std::endl) s
5 634 M
(                  << "Marks: " << this->marks << std::endl;) s
5 612 M
(    }) s
5 601 M
(};) s
5 579 M
(int main\(int argc, char *argv[]\)) s
5 568 M
({) s
5 557 M
(    Data d1;) s
5 546 M
(    d1.rno = 1;) s
5 535 M
(    d1.name = \(std::string\) "cocoa";) s
5 524 M
(    d1.marks = 0;) s
5 513 M
(    d1.display\(\);) s
5 502 M
(    return 0;) s
5 491 M
(}) s
_R
S
%%Page: (1) 8
%%BeginPageSetup
_S
24 24 translate
/pagenum 1 def
/fname (concat_array/main.cpp) def
/fdir (concat_array) def
/ftail (main.cpp) def
% User defined strings:
/fmodstr (Sat Dec 15 16:37:13 2018) def
/pagenumstr (1) def
/user_header_p false def
/user_footer_p false def
%%EndPageSetup
do_header
5 766 M
(#include <iostream>) s
5 744 M
(int main\(int argc, char *argv[]\)) s
5 733 M
({) s
5 722 M
(    int array1[] { 1, 2, 3 };) s
5 711 M
(    int size1 = sizeof\(array1\)/sizeof\(array1[0]\);) s
5 700 M
(    int array2[] { 4, 5, 6, 7 };) s
5 689 M
(    int size2 = sizeof\(array2\)/sizeof\(array2[0]\);) s
5 678 M
(    int total_size = size1 + size2, i;) s
5 667 M
(    int final_array[ total_size ];) s
5 645 M
(    for \(i = 0; i < size1; ++i\) {) s
5 634 M
(        final_array[i] = array1[i];) s
5 623 M
(    }) s
5 601 M
(    for \(i = size1; i < total_size; ++i\) {) s
5 590 M
(        final_array[i] = array2[i-size1];) s
5 579 M
(    }) s
5 557 M
(    for \(i = 0; i < total_size; ++i\) {) s
5 546 M
(        std::cout << final_array[i] << " "; ) s
5 535 M
(    }) s
5 513 M
(    std::cout << std::endl;) s
5 480 M
(    return 0;) s
5 469 M
(}) s
_R
S
%%Page: (1) 9
%%BeginPageSetup
_S
24 24 translate
/pagenum 1 def
/fname (constrctors/main.cpp) def
/fdir (constrctors) def
/ftail (main.cpp) def
% User defined strings:
/fmodstr (Sat Dec 15 21:35:00 2018) def
/pagenumstr (1) def
/user_header_p false def
/user_footer_p false def
%%EndPageSetup
do_header
5 766 M
(#include <iostream>) s
5 755 M
(#include <string>) s
5 744 M
(using namespace std;) s
5 722 M
(class Player {) s
5 711 M
(    public:) s
5 700 M
(        Player\(string name\) {) s
5 689 M
(            this->health  = 100;) s
5 678 M
(            this->attack  = 0.7;) s
5 667 M
(            this->defence = 0.2;) s
5 656 M
(            this->name    = name;) s
5 645 M
(        }) s
5 623 M
(        int take_damage\(double damage\) { ) s
5 612 M
(            this->health -= damage;) s
5 601 M
(            if \(this->health <= 0\) {) s
5 590 M
(                cout << "Player dead" << endl;) s
5 579 M
(            }) s
5 568 M
(            return this->health;   ) s
5 557 M
(        }) s
5 535 M
(        ~Player\(\) {) s
5 524 M
(            cout << "Goodbye" << endl;) s
5 513 M
(        }) s
5 502 M
(    private:) s
5 491 M
(        double health, attack, defence;) s
5 480 M
(        string name;) s
5 469 M
(};) s
5 447 M
(int main\(\)) s
5 436 M
({) s
5 425 M
(    Player Jake\("Jake"\);) s
5 414 M
(    Jake.take_damage\(100.0\);) s
5 403 M
(    return 0;) s
5 392 M
(}) s
_R
S
%%Page: (1) 10
%%BeginPageSetup
_S
24 24 translate
/pagenum 1 def
/fname (CPP11_binary_file/binary_file.cpp) def
/fdir (CPP11_binary_file) def
/ftail (binary_file.cpp) def
% User defined strings:
/fmodstr (Sun Dec 16 14:48:02 2018) def
/pagenumstr (1) def
/user_header_p false def
/user_footer_p false def
%%EndPageSetup
do_header
5 766 M
(#include <iostream>) s
5 755 M
(#include <cstring>) s
5 744 M
(#include <fstream>) s
5 733 M
(#include <bits/stdc++.h>) s
5 711 M
(class stock {) s
5 700 M
(    public:) s
5 689 M
(        int roll_no;) s
5 678 M
(        string name;) s
5 667 M
(        string course;) s
5 656 M
(        string admission_no[10];) s
5 623 M
(        void input\(\)) s
5 612 M
(        {) s
5 601 M
(            cout<<"Enter roll  number: ";) s
5 590 M
(            cin>>roll_no;) s
5 568 M
(            cout<<endl<<"Enter name: ";) s
5 557 M
(            cin>>name;) s
5 535 M
(            cout<<endl<<"Enter course: ";) s
5 524 M
(            cin>>course;) s
5 502 M
(            cout<<endl<<"Enter admission number: ";) s
5 491 M
(            cin>>admission_no;) s
5 480 M
(        }) s
5 458 M
(        void output\(\)) s
5 447 M
(        {) s
5 436 M
(            cout<<"Roll no: "<<roll_no<<endl<<"Name: "<<name<<endl<<"Course: "<<endl;) s
5 425 M
(            cout<<"Admission number: "<<admission_no;) s
5 414 M
(        }) s
5 381 M
(};) s
5 359 M
(void create\(string Fname[]\)) s
5 348 M
({) s
5 337 M
(        ofstream fil;) s
5 326 M
(        stock S;) s
5 315 M
(        fil.open\(Fname, ios::binary, ios::in\);) s
5 304 M
(        char choice;) s
5 282 M
(        do {) s
5 271 M
(                S.input\(\);) s
5 260 M
(                fil.write\(\(char*\)&S,sizeof\(S\)\);) s
5 249 M
(                cout<<"Want to enter more records?\(y/n\): ";) s
5 238 M
(                cin>>choice;) s
5 216 M
(        } while\(choice=='y' || choice=='Y'\);) s
5 205 M
(        fil.close\(\);) s
5 194 M
(}) s
5 172 M
(void display\(string Fname[]\)) s
5 161 M
({) s
5 150 M
(        fstream fil; stock s;) s
5 139 M
(        fil.open\(Fname, ios::binary| ios::in\);) s
5 128 M
(        fil.read\(\(char*\)&s, sizeof\(s\)\);) s
5 117 M
(        while\(!fil.eof\(\)\)) s
5 106 M
(        {) s
5 95 M
(                s.output\(\);) s
5 84 M
(                fil.read\(\(char*\)&s, sizeof\(s\)\);) s
5 73 M
(        }) s
5 62 M
(}) s
5 40 M
(void search\(char Fname[]\)) s
5 29 M
({) s
5 18 M
(        fstream fil; stock s;) s
5 7 M
(        int InoS,found=0;) s
_R
S
%%Page: (2) 11
%%BeginPageSetup
_S
24 24 translate
/pagenum 2 def
/fname (CPP11_binary_file/binary_file.cpp) def
/fdir (CPP11_binary_file) def
/ftail (binary_file.cpp) def
% User defined strings:
/fmodstr (Sun Dec 16 14:48:02 2018) def
/pagenumstr (2) def
/user_header_p false def
/user_footer_p false def
%%EndPageSetup
do_header
5 755 M
(        fil.open\(Fname, ios::binary| ios::in\);) s
5 744 M
(        cout<<"Enter Record to be searched: ";) s
5 733 M
(        cin>>InoS;) s
5 722 M
(        cout<<endl;) s
5 700 M
(        while\(fil.read\(\(char*\)&s,sizeof\(s\)\)\)) s
5 689 M
(        {) s
5 678 M
(                if\(s.roll_no==InoS\)) s
5 667 M
(                {) s
5 656 M
(                        s.output\(\);) s
5 645 M
(                        found++;) s
5 634 M
(                }) s
5 623 M
(        }) s
5 612 M
(        if\(found==0\)) s
5 601 M
(        {) s
5 590 M
(                cout<<"Record not found."<<endl;) s
5 579 M
(        }) s
5 568 M
(        fil.close\(\);) s
5 557 M
(}) s
5 535 M
(int count_rec\(string Fname[]\)) s
5 524 M
({) s
5 513 M
(        fstream fil; stock s;) s
5 502 M
(        int count=0;) s
5 480 M
(        fil.open\(Fname, ios::binary|ios::in\);) s
5 458 M
(        while\(fil.read\(\(char*\)&s, sizeof\(s\)\)\)) s
5 447 M
(        {) s
5 436 M
(      count++;) s
5 425 M
(      cout<<"No. of records: "<<count<<endl;) s
5 414 M
(        }) s
5 392 M
(        fil.close\(\);) s
5 381 M
(        return count;) s
5 370 M
(}) s
5 348 M
(void delete_record\(string fn1[], string fn2[]\)) s
5 337 M
({) s
5 326 M
(        fstream f1,f2;) s
5 315 M
(        stock s; int InoD;) s
5 293 M
(    f1.open\(fn1, ios::binary|ios::in\);) s
5 282 M
(    f2.open\(fn2, ios::binary|ios::in\);) s
5 260 M
(    cout<<"Enter record no. to be deleted: ";) s
5 249 M
(    cin>>InoD;) s
5 238 M
(    while\(f1.read\(\(char*\)&s,sizeof\(s\)\)\)) s
5 227 M
(        {) s
5 216 M
(                if\(s.roll_no!=InoD\)) s
5 205 M
(                {) s
5 194 M
(                        f2.write\(\(char*\)&S, sizeof\(S\)\);) s
5 183 M
(                }) s
5 172 M
(        }) s
5 161 M
(    f1.close\(\);) s
5 150 M
(    f2.close\(\);) s
5 128 M
(    remove\(fn1\),rename\(fn2,fn1\);) s
5 117 M
(    cout<<"Record deleted successfully.";) s
5 106 M
(}) s
5 84 M
(void transfer_file\(string Fname\){) s
5 73 M
(    ifstream fil1;) s
5 62 M
(    ofstream fil2;) s
5 51 M
(    string new_file_name;) s
5 40 M
(    stock s;) s
5 29 M
(    fil1.open\(Fname, ios::binary| ios::in\);) s
5 18 M
(    cout<<"Enter new file name: ";) s
5 7 M
(    cin>>new_file_name;) s
_R
S
%%Page: (3) 12
%%BeginPageSetup
_S
24 24 translate
/pagenum 3 def
/fname (CPP11_binary_file/binary_file.cpp) def
/fdir (CPP11_binary_file) def
/ftail (binary_file.cpp) def
% User defined strings:
/fmodstr (Sun Dec 16 14:48:02 2018) def
/pagenumstr (3) def
/user_header_p false def
/user_footer_p false def
%%EndPageSetup
do_header
5 766 M
(    fil2.open\(new_file_name, ios::binary| ios::out\);) s
5 755 M
(    while\(fil1.read\(\(char*\)&s,sizeof\(s\)\)\)) s
5 744 M
(        {) s
5 733 M
(                fil2.write\(\(char*\)&S, sizeof\(S\)\);) s
5 722 M
(        }) s
5 711 M
(    fil1.close\(\);) s
5 700 M
(    fil2.close\(\);) s
5 678 M
(}) s
5 656 M
(   }) s
5 634 M
(   int main\(\){) s
5 623 M
(        string Fname;) s
5 612 M
(        cout<<"Enter file name: ";) s
5 601 M
(        cin>>Fname;) s
5 590 M
(        do{cout<<endl<<endl<<"Manipulating "<<Fname<<endl<<endl;) s
5 579 M
(        cout<<"1.Create Records"<<endl<<"2.Display Records"<<endl;) s
5 568 M
(        cout<<"3.Search for a record."<<endl<<"4.Count the number of records."<<endl;) s
5 557 M
(        cout<<"5.Transfer records of this file to another."<<endl;) s
5 546 M
(        cout<<"6.Delete a record."<<endl<<"7. Exit";) s
5 535 M
(   switch\(ch\){) s
5 524 M
(     case 1: create\(Fname\);) s
5 513 M
(     case 2: display\(Fname\);) s
5 502 M
(     case 3: search\(Fname\);) s
5 491 M
(     case 4: count_rec\(Fname\);) s
5 480 M
(     case 5: transfer_file\(Fname\);) s
5 469 M
(     case 6: delete_record\(Fname,"File2.dat"\);) s
5 458 M
(     }) s
5 447 M
(   }while\(ch!=7\);) s
5 436 M
(   return 0;) s
5 425 M
(   }) s
5 414 M
(  ) s
5 392 M
( ) s
_R
S
%%Page: (1) 13
%%BeginPageSetup
_S
24 24 translate
/pagenum 1 def
/fname (CPP11_binary_file/teldir.cpp) def
/fdir (CPP11_binary_file) def
/ftail (teldir.cpp) def
% User defined strings:
/fmodstr (Sun Dec 16 14:48:02 2018) def
/pagenumstr (1) def
/user_header_p false def
/user_footer_p false def
%%EndPageSetup
do_header
5 766 M
(class teledir) s
5 755 M
({) s
5 744 M
(private:) s
5 733 M
(    char name[50];) s
5 722 M
(    char phone_no[10];) s
5 711 M
(    char address[200];) s
5 700 M
(   public:) s
5 689 M
(   ) s
5 678 M
(   void getdata\(\)) s
5 667 M
(   {) s
5 656 M
(    cout<<"Enter name: ";) s
5 645 M
(    gets\(name\);) s
5 623 M
(    cout<<"Enter phone number: ";) s
5 612 M
(    gets\(phone_no\);) s
5 590 M
(    cout<<"Enter address: ";) s
5 579 M
(    gets\(address\);) s
5 568 M
(   }) s
5 557 M
(void readData\(\)) s
5 546 M
({) s
5 535 M
(    fstream f;) s
5 524 M
(    line\(\);) s
5 513 M
(    f.open\("dir.dat", ios::binary | ios::in\);) s
5 502 M
(    telldir t;) s
5 491 M
(    cout << "Your DataBase:" << endl;) s
5 480 M
(    cout << "Name" << '\\t' << "Telephone" << '\\t' << "Address" << endl;) s
5 469 M
(    while\(!f.eof\(\)\)) s
5 458 M
(    {) s
5 447 M
(        f.read\(\(char*\)&t,sizeof\(t\)\);) s
5 436 M
(        t.show\(\);) s
5 425 M
(    }) s
5 403 M
(    f.close\(\);) s
5 392 M
(}) s
5 359 M
(}) s
5 337 M
(void create\(\)) s
5 326 M
(   {) s
5 315 M
(    ofstream fo;) s
5 304 M
(    fo.open\("tele.dat"; ios::binary| ios::out\)) s
5 293 M
(    char ch;) s
5 282 M
(    teledir t;) s
5 271 M
(    do{) s
5 260 M
(        t.getdata\(\);) s
5 238 M
(        fo.write\(\(char*\)&t,sizeof\(t\)\)) s
5 227 M
(        cout<<"Want to enter more?\(y/n\)";) s
5 216 M
(        cin>>ch;) s
5 205 M
(    }while\(ch==y\);) s
5 194 M
(    fo.close) s
5 183 M
(   }) s
5 161 M
(void changeData\(\)) s
5 150 M
({) s
5 139 M
(    fstream f;) s
5 117 M
(    f.open\("dir.bin", ios::binary | ios::in | ios::app\);) s
5 106 M
(    telldir t;) s
5 95 M
(    string no;) s
5 84 M
(    line\(\);) s
5 73 M
(    cout << "enter the number whose details u want to change: ";) s
5 62 M
(    cin >> no;) s
5 40 M
(    while \(f.read\(\(char *\)&t, sizeof\(t\)\)\)) s
5 29 M
(    {) s
5 18 M
(        if \(t.number == no\)) s
5 7 M
(        {) s
_R
S
%%Page: (2) 14
%%BeginPageSetup
_S
24 24 translate
/pagenum 2 def
/fname (CPP11_binary_file/teldir.cpp) def
/fdir (CPP11_binary_file) def
/ftail (teldir.cpp) def
% User defined strings:
/fmodstr (Sun Dec 16 14:48:02 2018) def
/pagenumstr (2) def
/user_header_p false def
/user_footer_p false def
%%EndPageSetup
do_header
5 755 M
(            cout << "ok";) s
5 744 M
(            ) s
5 733 M
(        }) s
5 722 M
(    }) s
5 700 M
(    f.close\(\);) s
5 689 M
(    cout << endl) s
5 678 M
(         << "database changed:" << endl;) s
5 667 M
(    ) s
5 656 M
(}) s
5 634 M
(void main\(\)) s
5 623 M
({) s
5 612 M
(    int i,n=0;) s
5 590 M
(    do) s
5 579 M
(    {) s
5 568 M
(    cout<<"1.create record."<<endl<<"2.See database"<<endl;) s
5 557 M
(    cout<<"3.Modify record"<<endl<<"4.Exit"<<endl;) s
5 546 M
(     cin>>i;) s
5 524 M
(     if\(i==1\)) s
5 513 M
(     {) s
5 502 M
(        create\(\);) s
5 491 M
(     }) s
5 480 M
(    } while \(n==0\);) s
5 469 M
(}) s
_R
S
%%Page: (1) 15
%%BeginPageSetup
_S
24 24 translate
/pagenum 1 def
/fname (CPP11_bsearch/bsearch.cpp) def
/fdir (CPP11_bsearch) def
/ftail (bsearch.cpp) def
% User defined strings:
/fmodstr (Sun Dec 16 14:48:02 2018) def
/pagenumstr (1) def
/user_header_p false def
/user_footer_p false def
%%EndPageSetup
do_header
5 766 M
(#include <iostream>) s
5 755 M
(#include <algorithm>) s
5 744 M
(#include <cstdio>) s
5 733 M
(#include <cstdlib>) s
5 722 M
(//#include<conio.h>) s
5 711 M
(using namespace std;) s
5 689 M
(int bsearch\(int a[],int e,int size\)) s
5 678 M
({) s
5 667 M
(        int l=0, u=size-1, mid;) s
5 645 M
(        while\(l<=u\) {) s
5 634 M
(        mid=\(l+u\)/2;) s
5 623 M
(                if\(a[mid]==e\)) s
5 612 M
(                return\(mid+1\);) s
5 601 M
(            else if\(a[mid]>e\)) s
5 590 M
(                u=mid-1;) s
5 579 M
(            else ) s
5 568 M
(                l=mid+1;) s
5 557 M
(        }) s
5 546 M
(    return -1;) s
5 535 M
(}) s
5 513 M
(int main\(\)) s
5 502 M
({) s
5 491 M
(    int arr[10];) s
5 480 M
(    int element;) s
5 469 M
(    int check=0;) s
5 458 M
(    for \(int i = 0; i < 10; i++\) {) s
5 447 M
(        cout << "Enter element " << i << ": "; ) s
5 436 M
(        cin  >> arr[i];) s
5 425 M
(    }) s
5 403 M
(    cout << "Sorting as ascending..." << endl;) s
5 392 M
(    sort\(arr, arr+10\);) s
5 370 M
(    cout<<"Enter elemevnt to be searched: ";) s
5 359 M
(    do {) s
5 348 M
(        cin>>element;) s
5 326 M
(        int x=bsearch\(arr,element,10\);) s
5 304 M
(        if\(x==-1\)) s
5 293 M
(            cout<<"Element not found. Please enter again.";) s
5 282 M
(        else {) s
5 271 M
(            cout<<"Element found at position "<<x<<endl<<"Press any key to continue.";) s
5 260 M
(            check=1;) s
5 249 M
(            getchar\(\);) s
5 238 M
(        }) s
5 216 M
(    } while\(check==0\);) s
5 205 M
( }) s
_R
S
%%Page: (1) 16
%%BeginPageSetup
_S
24 24 translate
/pagenum 1 def
/fname (CPP11_class/class.cpp) def
/fdir (CPP11_class) def
/ftail (class.cpp) def
% User defined strings:
/fmodstr (Sun Dec 16 14:48:02 2018) def
/pagenumstr (1) def
/user_header_p false def
/user_footer_p false def
%%EndPageSetup
do_header
5 766 M
(#include <iostream>) s
5 755 M
(#include <string.h>) s
5 744 M
(#include <iomanip>) s
5 733 M
(#include <cstdlib>) s
5 722 M
(using namespace std;) s
5 700 M
(class stud) s
5 689 M
({) s
5 678 M
(    private:) s
5 667 M
(        int marks[5];) s
5 656 M
(        int rno;) s
5 645 M
(        char name[20];) s
5 623 M
(    public:) s
5 601 M
(        void getdata\(\);) s
5 590 M
(        void displaydata\(\);) s
5 568 M
(};) s
5 546 M
(void stud::getdata\(\)) s
5 535 M
({) s
5 524 M
(    cout<<"____________________________________"<<endl;) s
5 513 M
(    cout<<"Enter student roll number : ";) s
5 502 M
(    cin>>rno;) s
5 491 M
(    cout<<endl<<"Enter student name: ";) s
5 480 M
(    cin>>name;) s
5 469 M
(    cout<<endl;) s
5 447 M
(    for\(int i=0;i<5;i++\) {) s
5 436 M
(        cout<<"Enter marks of subject "<<i+1<<" : ";) s
5 425 M
(        cin>>marks[i];) s
5 414 M
(        cout<<endl;) s
5 403 M
(    }) s
5 392 M
(}) s
5 348 M
(void stud::displaydata\(\)) s
5 337 M
({) s
5 326 M
(    cout<<"Roll Number: "<<rno<<"  ";) s
5 315 M
(    cout<<"Name: "<<name<<endl<<endl;) s
5 304 M
(    cout<<"_________________________________________"<<endl;) s
5 282 M
(    for \(int j=0;j<5;j++\)) s
5 271 M
(        cout<<"Subject "<<j+1<<"||";) s
5 249 M
(    cout<<endl<<endl;) s
5 227 M
(    for \(int j=0; j < 5; j++\)) s
5 216 M
(        cout<<setw\(8\)<<marks[j]<<"  ";) s
5 194 M
(    cout<<endl<<endl;) s
5 183 M
(}) s
5 161 M
(int main\(\)) s
5 150 M
({) s
5 139 M
(    system\("clear"\);) s
5 128 M
(    int ns;) s
5 106 M
(    stud s[20];) s
5 95 M
(    cout << "Enter number of students \(at most 20\): ";) s
5 84 M
(    cin  >> ns;) s
5 73 M
(    cout << endl;) s
5 51 M
(    for\(int i=0;i<ns;i++\)) s
5 40 M
(    {) s
5 29 M
(        cout<<"Enter details of student "<<i+1<<endl<<endl;) s
5 18 M
(        s[i].getdata\(\);) s
5 7 M
(        cout<<endl<<"___________________________________________"<<endl<<endl<<endl;) s
_R
S
%%Page: (2) 17
%%BeginPageSetup
_S
24 24 translate
/pagenum 2 def
/fname (CPP11_class/class.cpp) def
/fdir (CPP11_class) def
/ftail (class.cpp) def
% User defined strings:
/fmodstr (Sun Dec 16 14:48:02 2018) def
/pagenumstr (2) def
/user_header_p false def
/user_footer_p false def
%%EndPageSetup
do_header
5 766 M
(    }) s
5 744 M
(    for\(int i=0;i<ns;i++\)) s
5 733 M
(    {) s
5 722 M
(        cout<<"_______________________________"<<endl;) s
5 711 M
(        cout<<"Details of student "<<i+1<<" : "<<endl;) s
5 700 M
(        cout<<"_______________________________"<<endl;) s
5 689 M
(        s[i].displaydata\(\);) s
5 678 M
(        cout<<endl<<endl<<endl;) s
5 667 M
(    }) s
5 634 M
(    getchar\(\);) s
5 623 M
(    return 0;) s
5 612 M
(}) s
_R
S
%%Page: (1) 18
%%BeginPageSetup
_S
24 24 translate
/pagenum 1 def
/fname (CPP11_Container/p.cpp) def
/fdir (CPP11_Container) def
/ftail (p.cpp) def
% User defined strings:
/fmodstr (Sun Dec 16 14:48:02 2018) def
/pagenumstr (1) def
/user_header_p false def
/user_footer_p false def
%%EndPageSetup
do_header
5 766 M
(#include <iostream>) s
5 755 M
(#include <cstring>) s
5 744 M
(#include <string>) s
5 733 M
(#include <stdio.h>) s
5 722 M
(#include <cstdlib>) s
5 711 M
(using namespace std;) s
5 689 M
(// To calculate volume of cylinder or cone \( choice by user\), using class and constructor) s
5 678 M
(s.) s
5 656 M
(float pi=3.1415926;) s
5 634 M
(class container) s
5 623 M
({) s
5 612 M
(        private:) s
5 601 M
(        long double radius,height,volume;) s
5 590 M
(        char type[15];) s
5 568 M
(        public:) s
5 557 M
(                void getvalues\(\)) s
5 546 M
(                {) s
5 535 M
(                        cout<<"Enter radius\(in cm\): ";) s
5 524 M
(                        cin>>radius;) s
5 502 M
(                        cout<<endl<<"Enter height\(in cm\): ";) s
5 491 M
(                        cin>>height;) s
5 469 M
(                        cout<<"Enter shape:\(cylinder/cone\)";) s
5 458 M
(                        //gets\(type\);) s
5 447 M
(            cin.ignore\(\);) s
5 436 M
(            cin.getline\(type, 15\);) s
5 425 M
(                        cout<<endl;) s
5 414 M
(                }) s
5 392 M
(        void calcvolume\(\)) s
5 381 M
(        {) s
5 370 M
(            if\(strcmp\(type,"cone"\)==0\)) s
5 359 M
(                volume=\(pi*radius*radius*height/3\);) s
5 348 M
(            else if\(strcmp\(type,"cylinder"\)==0\)) s
5 337 M
(                volume=\(pi*radius*radius*height\);) s
5 326 M
(            else) s
5 315 M
(                volume=0;) s
5 304 M
(        }) s
5 282 M
(                void showvalues\(\);) s
5 249 M
(        container\(\)) s
5 238 M
(        {) s
5 227 M
(            radius=0;) s
5 216 M
(            height=0;) s
5 205 M
(            strcpy\(type,"NA"\);) s
5 194 M
(        }) s
5 183 M
(        container\(float r,float h,char t[15]\)) s
5 172 M
(        {) s
5 161 M
(            radius=r;) s
5 150 M
(            height=h;) s
5 139 M
(            strcpy\(type,t\);) s
5 128 M
(        }) s
5 117 M
(};) s
5 84 M
(void container::showvalues\(\)) s
5 73 M
({) s
5 62 M
(    cout<<"Radius: "<<radius<<endl;) s
5 51 M
(    cout<<"Height: "<<height<<endl;) s
5 40 M
(    cout<<"Type: "<<type<<endl;) s
5 29 M
(    cout<<"Volume: "<<volume<<" cubic cm.";) s
5 18 M
(}) s
_R
S
%%Page: (2) 19
%%BeginPageSetup
_S
24 24 translate
/pagenum 2 def
/fname (CPP11_Container/p.cpp) def
/fdir (CPP11_Container) def
/ftail (p.cpp) def
% User defined strings:
/fmodstr (Sun Dec 16 14:48:02 2018) def
/pagenumstr (2) def
/user_header_p false def
/user_footer_p false def
%%EndPageSetup
do_header
5 766 M
(int main\(\)) s
5 755 M
({) s
5 744 M
(    system\("clear"\);) s
5 733 M
(    float r,h;) s
5 711 M
(    char t[15],ch;) s
5 700 M
(    container c1;) s
5 689 M
(    do {) s
5 678 M
(        c1.getvalues\(\);) s
5 667 M
(        c1.calcvolume\(\);) s
5 656 M
(        c1.showvalues\(\);) s
5 645 M
(        getchar\(\);) s
5 623 M
(        cout<<endl<<"Want to enter more?\(y/n\)";) s
5 612 M
(        cin>>ch;) s
5 601 M
(    }while\(ch=='y'\);) s
5 590 M
(}) s
_R
S
%%Page: (1) 20
%%BeginPageSetup
_S
24 24 translate
/pagenum 1 def
/fname (CPP11_dance/dance.cpp) def
/fdir (CPP11_dance) def
/ftail (dance.cpp) def
% User defined strings:
/fmodstr (Sun Dec 16 14:48:02 2018) def
/pagenumstr (1) def
/user_header_p false def
/user_footer_p false def
%%EndPageSetup
do_header
5 766 M
(#include <iostream>) s
5 755 M
(#include <cstring>) s
5 744 M
(#include <stdio.h>) s
5 733 M
(#include <stdlib.h>) s
5 722 M
(using namespace std;) s
5 700 M
(class dance) s
5 689 M
({) s
5 678 M
(    private:) s
5 667 M
(        int rno;) s
5 656 M
(        char name[50];) s
5 645 M
(        char style[50];) s
5 634 M
(        float fee;) s
5 612 M
(        void checkfee\(\)) s
5 601 M
(        {) s
5 590 M
(            if\(strcmp\(style,"classical"\)==0\)) s
5 579 M
(                fee=10000;) s
5 568 M
(            else if\(strcmp\(style,"western"\)==0\)) s
5 557 M
(                fee=8000;) s
5 546 M
(            else if\(strcmp\(style,"freestyle"\)==0\)) s
5 535 M
(                fee=11000;) s
5 524 M
(        }) s
5 502 M
(    public:) s
5 491 M
(        void enrol\(\)) s
5 480 M
(        {) s
5 469 M
(            cout << "Enter roll number: ";) s
5 458 M
(            cin  >> rno;) s
5 436 M
(            cout << endl << "Enter name: ";) s
5 425 M
(            cin.ignore\(\);) s
5 414 M
(            cin.getline\(name, 50\);) s
5 392 M
(            cout << endl << "Enter style: ";) s
5 381 M
(            cin.ignore\(\);) s
5 370 M
(            cin.getline\(style, 50\);) s
5 359 M
(            cout << endl;) s
5 337 M
(            checkfee\(\);) s
5 326 M
(        }) s
5 304 M
(        void showdata\(\) {) s
5 293 M
(           cout << "Roll no." << rno   << endl) s
5 282 M
(                << "Name: "   << name  << endl) s
5 271 M
(                << "Style: "  << style << endl) s
5 260 M
(                << "Fee: "    << fee;) s
5 249 M
(        }) s
5 238 M
(};) s
5 216 M
(int main\(\)) s
5 205 M
({    ) s
5 194 M
(    system\("clear"\);) s
5 183 M
(        int  ns;) s
5 172 M
(    dance a[50];) s
5 161 M
(    cout<<"Enter number of  students: ";) s
5 150 M
(    cin>>ns;) s
5 128 M
(        for \(int i = 0; i<ns; i++\) {) s
5 117 M
(           cout<<"Enter details of student "<<i+1<<endl;) s
5 106 M
(           a[i].enrol\(\);) s
5 95 M
(        }) s
5 73 M
(        for \(int i = 0; i < ns; i++\) {) s
5 62 M
(        cout<<endl<<"Details of student "<<i+1<<":"<<endl;) s
5 51 M
(        a[i].showdata\(\);) s
5 40 M
(        }) s
5 29 M
(    getchar\(\);) s
5 18 M
(}) s
_R
S
%%Page: (1) 21
%%BeginPageSetup
_S
24 24 translate
/pagenum 1 def
/fname (CPP11_fruits/fruits.cpp) def
/fdir (CPP11_fruits) def
/ftail (fruits.cpp) def
% User defined strings:
/fmodstr (Sun Dec 16 14:48:02 2018) def
/pagenumstr (1) def
/user_header_p false def
/user_footer_p false def
%%EndPageSetup
do_header
5 766 M
(#include <iostream>) s
5 755 M
(#include <stdlib.h>) s
5 744 M
(#include <stdio.h>) s
5 733 M
(using namespace std;) s
5 711 M
(int main\(\)) s
5 700 M
({) s
5 689 M
(    char fruits[10][50];) s
5 678 M
(   ) s
5 667 M
(    for \(int i = 0; i < 10; i++\) {) s
5 656 M
(        cout<<"Enter fruit number "<<i+1<<" : ";) s
5 645 M
(        cin.ignore\(\);) s
5 634 M
(        cin.getline\(fruits[i], 50\);) s
5 623 M
(    }) s
5 601 M
(    int x=\(rand\(\)%10\)+1;) s
5 579 M
(    cout<<"Random fruit is "<<fruits[x];) s
5 568 M
(    getchar\(\);) s
5 557 M
(    return 0;) s
5 546 M
(}) s
_R
S
%%Page: (1) 22
%%BeginPageSetup
_S
24 24 translate
/pagenum 1 def
/fname (CPP11_pointers/pointers.cpp) def
/fdir (CPP11_pointers) def
/ftail (pointers.cpp) def
% User defined strings:
/fmodstr (Sun Dec 16 14:48:02 2018) def
/pagenumstr (1) def
/user_header_p false def
/user_footer_p false def
%%EndPageSetup
do_header
5 766 M
(#include <iostream>) s
5 755 M
(#include <cstring>) s
5 744 M
(#include <bits/stdc++.h>) s
5 733 M
(using namespace std;) s
5 711 M
(struct stud{) s
5 700 M
(        int rno;) s
5 689 M
(        string name;) s
5 678 M
(        float marks;) s
5 667 M
(};) s
5 645 M
(class eas{) s
5 634 M
(    public:) s
5 623 M
(        stud *sptr;) s
5 612 M
(        void getData\(\){) s
5 601 M
(            sptr=new stud;) s
5 590 M
(            cout<<"Enter roll number: ";) s
5 579 M
(            cin>>sptr->rno;) s
5 557 M
(            cout<<"Enter Name: ";) s
5 546 M
(            cin>>sptr->name;) s
5 524 M
(            cout<<"Enter marks: ";) s
5 513 M
(            cin>>sptr->marks;) s
5 502 M
(        }) s
5 480 M
(        void DisplayData\(\){) s
5 469 M
(            cout<<"Roll no: "<<sptr->rno<<endl;) s
5 458 M
(            cout<<"Name: "<<sptr->name<<endl;) s
5 447 M
(            cout<<"Marks: "<<sptr->marks;) s
5 425 M
(            delete sptr;//sprt=NULL) s
5 414 M
(        }) s
5 403 M
(};) s
5 381 M
(int main\(\){) s
5 370 M
(    eas a;) s
5 359 M
(    a.getData\(\);) s
5 348 M
(    a.DisplayData\(\);) s
5 337 M
(    return 0;) s
5 326 M
(}) s
_R
S
%%Page: (1) 23
%%BeginPageSetup
_S
24 24 translate
/pagenum 1 def
/fname (CPP11_static/static.cpp) def
/fdir (CPP11_static) def
/ftail (static.cpp) def
% User defined strings:
/fmodstr (Sun Dec 16 14:48:02 2018) def
/pagenumstr (1) def
/user_header_p false def
/user_footer_p false def
%%EndPageSetup
do_header
5 766 M
(#include <iostream>) s
5 755 M
(#include <cstdlib>) s
5 744 M
(using namespace std;) s
5 722 M
(class item) s
5 711 M
({  ) s
5 700 M
(    public:) s
5 689 M
(        static int count;) s
5 678 M
(        int n;) s
5 656 M
(        void in\(int x\) {) s
5 645 M
(            n=x;) s
5 634 M
(            count++;) s
5 623 M
(        }) s
5 601 M
(        void de\(int x\) {) s
5 590 M
(            n=x;) s
5 579 M
(            count--;) s
5 568 M
(        }) s
5 557 M
(        void displaycount\(\) {) s
5 546 M
(            cout<<"count=";) s
5 535 M
(            cout<<count<<endl;) s
5 524 M
(        }) s
5 513 M
(};) s
5 491 M
(int item::count;) s
5 469 M
(int main\(\)) s
5 458 M
({ ) s
5 447 M
(    item p1,p2;) s
5 436 M
(    system\("clear"\);) s
5 414 M
(    p1.in\(7\);) s
5 403 M
(    p2.in\(8\);) s
5 381 M
(    p1.displaycount\(\);) s
5 370 M
(    p2.displaycount\(\);) s
5 348 M
(    p1.de\(7\);) s
5 337 M
(    p2.de\(8\);) s
5 315 M
(    p1.displaycount\(\);) s
5 304 M
(    p2.displaycount\(\);) s
5 293 M
(    getchar\(\);) s
5 271 M
(    return 0;) s
5 260 M
(}) s
_R
S
%%Page: (1) 24
%%BeginPageSetup
_S
24 24 translate
/pagenum 1 def
/fname (CPP11_textfile/platform.cpp) def
/fdir (CPP11_textfile) def
/ftail (platform.cpp) def
% User defined strings:
/fmodstr (Sun Dec 16 14:48:02 2018) def
/pagenumstr (1) def
/user_header_p false def
/user_footer_p false def
%%EndPageSetup
do_header
5 766 M
(#include <iostream>) s
5 755 M
(#include <fstream>) s
5 744 M
(#include <stdio.h>) s
5 733 M
(#include <string.h>) s
5 722 M
(using namespace std;) s
5 700 M
(void create\(char filename[20],int nol\)) s
5 689 M
({) s
5 678 M
(    char line[80];) s
5 667 M
(    ofstream fo;) s
5 656 M
(    fo.open\(filename\);) s
5 634 M
(    for\(int i=0;i<nol;i++\) {) s
5 623 M
(        cin.ignore\(\);) s
5 612 M
(        cin.getline\(line, 80\);) s
5 601 M
(        fo<<line<<endl;) s
5 590 M
(    }) s
5 579 M
(    fo.close\(\);) s
5 568 M
(}) s
5 546 M
(void readfile\(char filename[20]\)) s
5 535 M
({) s
5 524 M
(    char name[50];) s
5 502 M
(    ifstream infile;) s
5 491 M
(    infile.open\(filename\);) s
5 469 M
(    while\(!infile.eof\(\)\) {) s
5 458 M
(        infile>>name;) s
5 447 M
(        cout<<name<<endl;) s
5 436 M
(        strcpy\(name,""\);//Nullify the name string) s
5 425 M
(    }) s
5 414 M
(    infile.close\(\);) s
5 403 M
( }) s
5 359 M
(int main\(\)) s
5 348 M
({) s
5 337 M
(    system\("clear"\);) s
5 326 M
(    char filename[20];) s
5 315 M
(    int n=0,i=0;) s
5 304 M
(    cout<<"Text file operation"<<endl;) s
5 282 M
(    do {) s
5 271 M
(        cout<<"1.Create file"<<endl<<"2.Display file"<<endl<<"3.Exit"<<endl;) s
5 260 M
(        cin>>n;) s
5 238 M
(        if\(n==1\) {) s
5 227 M
(            cout<<"Enter file name: ";) s
5 216 M
(            cin.ignore\(\);) s
5 205 M
(            cin.getline\(filename, 20\);) s
5 183 M
(            int nol;) s
5 172 M
(            cout<<"Enter number of lines: ";) s
5 161 M
(            cin>>nol;) s
5 150 M
(            create\(filename,nol\);) s
5 139 M
(        }) s
5 117 M
(        if\(n==2\) {) s
5 106 M
(            cout<<"Enter file name: ";) s
5 95 M
(            cin.ignore\(\);) s
5 84 M
(            cin.getline\(filename, 20\);) s
5 62 M
(            cout<<"The contents are: "<<endl;) s
5 51 M
(            readfile\(filename\);) s
5 40 M
(        }) s
5 7 M
(        if\(n==3\)) s
_R
S
%%Page: (2) 25
%%BeginPageSetup
_S
24 24 translate
/pagenum 2 def
/fname (CPP11_textfile/platform.cpp) def
/fdir (CPP11_textfile) def
/ftail (platform.cpp) def
% User defined strings:
/fmodstr (Sun Dec 16 14:48:02 2018) def
/pagenumstr (2) def
/user_header_p false def
/user_footer_p false def
%%EndPageSetup
do_header
5 766 M
(            i=1;) s
5 733 M
(    } while\(i==0\);) s
5 722 M
(    return 0;) s
5 711 M
(}) s
_R
S
%%Page: (1) 26
%%BeginPageSetup
_S
24 24 translate
/pagenum 1 def
/fname (func_overloading/main.cpp) def
/fdir (func_overloading) def
/ftail (main.cpp) def
% User defined strings:
/fmodstr (Sat Dec 15 21:40:48 2018) def
/pagenumstr (1) def
/user_header_p false def
/user_footer_p false def
%%EndPageSetup
do_header
5 766 M
(#include <iostream>) s
5 755 M
(#include <string>) s
5 744 M
(using namespace std;) s
5 722 M
(void add\(int a, int b\) {) s
5 711 M
(    cout << a + b << endl;) s
5 700 M
(}) s
5 678 M
(void add\(double a, double b\) {) s
5 667 M
(    cout << a + b << endl;) s
5 656 M
(}) s
5 634 M
(void add\(string a, string b\) {) s
5 623 M
(    cout << a + b << endl;) s
5 612 M
(}) s
5 579 M
(int main\(\) {) s
5 568 M
(    add\(1, 2\);) s
5 557 M
(    add\(1.0, 2.0\);) s
5 546 M
(    add\(\(string\) "hello", \(string\) " world"\);) s
5 535 M
(}) s
_R
S
%%Page: (1) 27
%%BeginPageSetup
_S
24 24 translate
/pagenum 1 def
/fname (insert_array/main.cpp) def
/fdir (insert_array) def
/ftail (main.cpp) def
% User defined strings:
/fmodstr (Sun Dec 16 21:09:57 2018) def
/pagenumstr (1) def
/user_header_p false def
/user_footer_p false def
%%EndPageSetup
do_header
5 766 M
(#include <iostream>) s
5 755 M
(using namespace std;) s
5 733 M
(int main\(int argc, char *argv[]\)) s
5 722 M
({) s
5 711 M
(    int array[] = {1, 2, 3, 4};) s
5 700 M
(    ssize_t size = \(ssize_t\) sizeof\(array\) / sizeof\(array[0]\);) s
5 689 M
(    cout << size << endl << endl;) s
5 678 M
(    int input, index;) s
5 667 M
(    cout << "Enter value: ";) s
5 656 M
(    cin  >> input;) s
5 645 M
(    cout << "Enter index: ";) s
5 634 M
(    cin  >> index;) s
5 612 M
(    if \(index < 0 || index > size\)) s
5 601 M
(        return -1;) s
5 579 M
(    int final_array[size+1];) s
5 568 M
(    for \(int i = 0; i <= size; ++i\) {) s
5 557 M
(        if \(i == index\) ) s
5 546 M
(            final_array[i] = input;) s
5 535 M
(        else if \(i > index\) ) s
5 524 M
(            final_array[i+1] = array[i];) s
5 513 M
(        else) s
5 502 M
(            final_array[i] = array[i];) s
5 491 M
(    }) s
5 469 M
(    for \(int i = 0; i <= size; ++i\) {) s
5 458 M
(        cout << final_array[i] << " ";) s
5 447 M
(    }) s
5 436 M
(    cout << endl;) s
5 425 M
(    return 0;) s
5 414 M
(}) s
_R
S
%%Page: (1) 28
%%BeginPageSetup
_S
24 24 translate
/pagenum 1 def
/fname (lsearch/main.cpp) def
/fdir (lsearch) def
/ftail (main.cpp) def
% User defined strings:
/fmodstr (Sat Dec 15 16:37:13 2018) def
/pagenumstr (1) def
/user_header_p false def
/user_footer_p false def
%%EndPageSetup
do_header
5 766 M
(#include <iostream>) s
5 755 M
(#include <algorithm>) s
5 733 M
(int main\(int argc, char *argv[]\)) s
5 722 M
({) s
5 711 M
(    int array[] { 1, 2, 3, 4, 5 };) s
5 700 M
(    std::reverse\(array, array + 5\); //  Reverse the array for fun) s
5 689 M
(    int target, i;) s
5 678 M
(    std::cout << "Target integer: ";) s
5 667 M
(    std::cin >> target;) s
5 656 M
(    double len_array = sizeof\(array\)/sizeof\(array[0]\);) s
5 634 M
(    for \(i = 0; i < len_array; ++i\) {) s
5 623 M
(        if \(array[i] == target\) {) s
5 612 M
(            std::cout << "Found element at " << i+1 << std::endl;) s
5 601 M
(            return 0;) s
5 590 M
(        }) s
5 579 M
(    }) s
5 568 M
(    ) s
5 557 M
(    std::cout << "Error: Could not find element" << std::endl;) s
5 546 M
(    return -1;) s
5 535 M
(}) s
_R
S
%%Page: (1) 29
%%BeginPageSetup
_S
24 24 translate
/pagenum 1 def
/fname (queue/main.cpp) def
/fdir (queue) def
/ftail (main.cpp) def
% User defined strings:
/fmodstr (Sat Dec 15 16:37:13 2018) def
/pagenumstr (1) def
/user_header_p false def
/user_footer_p false def
%%EndPageSetup
do_header
5 766 M
(#include <iostream>) s
5 744 M
(struct node {) s
5 733 M
(    struct node* next;) s
5 722 M
(    int opcode;) s
5 711 M
(};) s
5 689 M
(class Queue) s
5 678 M
({) s
5 667 M
(private:) s
5 656 M
(    struct node* bottom;) s
5 645 M
(    struct node* top;) s
5 634 M
(public:) s
5 623 M
(    Queue\(int init_opcode\) {) s
5 612 M
(        struct node* temp = new node;) s
5 601 M
(        temp->opcode = init_opcode;) s
5 590 M
(        temp->next   = NULL;) s
5 568 M
(        this->bottom = temp;) s
5 557 M
(        this->top = temp;) s
5 546 M
(    }) s
5 535 M
(    ) s
5 524 M
(    void enqueue\(int new_opcode\) {) s
5 513 M
(        struct node* temp = new node;) s
5 502 M
(        temp->opcode = new_opcode;) s
5 491 M
(        temp->next = NULL;) s
5 469 M
(        this->top->next = temp;) s
5 458 M
(        this->top = temp;) s
5 447 M
(    }) s
5 425 M
(    int dequeue\(\) {) s
5 414 M
(        if \(this->bottom == NULL\) {) s
5 403 M
(            std::cout << "Underflow Error" << std::endl;) s
5 392 M
(            return -1;) s
5 381 M
(        }) s
5 370 M
(        struct node* temp = new node;) s
5 359 M
(        int rval = this->bottom->opcode;) s
5 348 M
(        temp = this->bottom;) s
5 326 M
(        this->bottom = this->bottom->next;) s
5 315 M
(        delete temp;) s
5 293 M
(        return rval;) s
5 282 M
(    }) s
5 260 M
(    void printq\(\) {) s
5 249 M
(        struct node* temp = new node;) s
5 238 M
(        temp = this->bottom;) s
5 227 M
(        while\( temp != NULL \) {) s
5 216 M
(            std::cout << "Opcode: " << temp->opcode << std::endl;) s
5 205 M
(            temp = temp->next;) s
5 194 M
(        }) s
5 183 M
(    }) s
5 161 M
(};) s
5 128 M
(int main\(int argc, char *argv[]\)) s
5 117 M
({) s
5 106 M
(    Queue Q \(10\);) s
5 84 M
(    Q.enqueue\(11\);) s
5 73 M
(    Q.enqueue\(12\);) s
5 51 M
(    Q.printq\(\);) s
5 29 M
(    Q.dequeue\(\);) s
5 18 M
(    Q.dequeue\(\);) s
5 7 M
(    Q.printq\(\);) s
_R
S
%%Page: (2) 30
%%BeginPageSetup
_S
24 24 translate
/pagenum 2 def
/fname (queue/main.cpp) def
/fdir (queue) def
/ftail (main.cpp) def
% User defined strings:
/fmodstr (Sat Dec 15 16:37:13 2018) def
/pagenumstr (2) def
/user_header_p false def
/user_footer_p false def
%%EndPageSetup
do_header
5 755 M
(    Q.dequeue\(\);) s
5 744 M
(    Q.dequeue\(\);) s
5 711 M
(    ) s
5 700 M
(    return 0;) s
5 689 M
(}) s
_R
S
%%Page: (1) 31
%%BeginPageSetup
_S
24 24 translate
/pagenum 1 def
/fname (randstrings/main.cpp) def
/fdir (randstrings) def
/ftail (main.cpp) def
% User defined strings:
/fmodstr (Sat Dec 15 16:37:13 2018) def
/pagenumstr (1) def
/user_header_p false def
/user_footer_p false def
%%EndPageSetup
do_header
5 766 M
(#include <iostream>) s
5 755 M
(#include <stdlib.h>) s
5 744 M
(#include <time.h>) s
5 722 M
(int main\(int argc, char *argv[]\)) s
5 711 M
({) s
5 700 M
(    char* array_of_strings[5] = { "first", "second", "third", "fourth", "fifth" };) s
5 689 M
(    srand\(time\(NULL\)\);) s
5 667 M
(    int rint = rand\(\) % 5, i = 0;) s
5 645 M
(    while\(array_of_strings[rint][i] != '\\0'\) {) s
5 634 M
(        std::cout << array_of_strings[rint][i];) s
5 623 M
(        i++;) s
5 612 M
(    }) s
5 590 M
(    return 0;) s
5 579 M
(}) s
_R
S
%%Page: (1) 32
%%BeginPageSetup
_S
24 24 translate
/pagenum 1 def
/fname (stack/main.cpp) def
/fdir (stack) def
/ftail (main.cpp) def
% User defined strings:
/fmodstr (Sat Dec 15 16:37:13 2018) def
/pagenumstr (1) def
/user_header_p false def
/user_footer_p false def
%%EndPageSetup
do_header
5 766 M
(#include <iostream>) s
5 755 M
(#include <string>) s
5 733 M
(struct node {) s
5 722 M
(    node *next;) s
5 711 M
(    std::string item;) s
5 689 M
(    void set\(std::string _item\) {) s
5 678 M
(        item = _item;) s
5 667 M
(    }) s
5 656 M
(};) s
5 623 M
(class Stack {) s
5 612 M
(public:) s
5 590 M
(    Stack\(std::string first_item\) {) s
5 579 M
(        node *temp = new node;) s
5 557 M
(        temp->set\(first_item\);) s
5 546 M
(        temp->next = NULL;) s
5 524 M
(        this->top = temp;) s
5 513 M
(    }) s
5 491 M
(    void push\(std::string newItem\) {) s
5 480 M
(        node *temp = new node;) s
5 458 M
(        temp->set\(newItem\);) s
5 447 M
(        temp->next = top;) s
5 436 M
(        this->top  = temp;) s
5 425 M
(    }) s
5 403 M
(    void display\(\) {) s
5 392 M
(        node *cnode = this->top;) s
5 381 M
(        while \( cnode != NULL \) {) s
5 370 M
(            std::cout << cnode->item << std::endl;) s
5 359 M
(            cnode = cnode->next;) s
5 348 M
(        }) s
5 337 M
(    }) s
5 315 M
(    void pop_top\(\) {) s
5 304 M
(        if \(this->top == NULL\) {) s
5 293 M
(            std::cout << "Underflow error: Stack empty. Push. dammit" << std::endl;) s
5 282 M
(            return;) s
5 271 M
(        }) s
5 249 M
(        node *first = this->top;) s
5 227 M
(        this->top = top->next;) s
5 205 M
(        delete first;) s
5 194 M
(    }) s
5 172 M
(    bool isEmpty\(\) {) s
5 161 M
(        if \(this->top == NULL\) {) s
5 150 M
(            return true;) s
5 139 M
(        }) s
5 128 M
(        return false;) s
5 117 M
(    }) s
5 84 M
(private:) s
5 73 M
(    node *top;) s
5 62 M
(};) s
5 40 M
(int main\(int argc, char *argv[]\)) s
5 29 M
({) s
5 18 M
(    std::string temp = "first";) s
5 7 M
(    Stack test \(temp\);) s
_R
S
%%Page: (2) 33
%%BeginPageSetup
_S
24 24 translate
/pagenum 2 def
/fname (stack/main.cpp) def
/fdir (stack) def
/ftail (main.cpp) def
% User defined strings:
/fmodstr (Sat Dec 15 16:37:13 2018) def
/pagenumstr (2) def
/user_header_p false def
/user_footer_p false def
%%EndPageSetup
do_header
5 755 M
(    //test.display\(\);) s
5 744 M
(    temp = "second";) s
5 733 M
(    test.push\(temp\);) s
5 711 M
(    //test.display\(\);) s
5 700 M
(    temp = "third";) s
5 689 M
(    test.push\(temp\);) s
5 667 M
(    test.display\(\);) s
5 656 M
(    test.pop_top\(\);) s
5 645 M
(    //test.display_top\(\);) s
5 634 M
(    test.display\(\);) s
5 612 M
(    while\(!test.isEmpty\(\)\) {) s
5 601 M
(        test.pop_top\(\);) s
5 590 M
(        std::cout << "____________" << std::endl;) s
5 579 M
(        test.display\(\);) s
5 568 M
(    }) s
5 546 M
(    test.pop_top\(\);) s
5 524 M
(    return 0;) s
5 513 M
(}) s
_R
S
%%Trailer
%%Pages: 33
%%DocumentNeededResources: font Courier-Bold Courier 
%%EOF
