[
    {
        "arguments": [
            "g++",
            "-c",
            "-o",
            "main",
            "main.cpp"
        ],
        "directory": "/home/cocoa/Documents/CS/schoolstuff/practical_file/12/src/constrctors",
        "file": "main.cpp"
    }
]